{
    "swagger": "2.0",
    "info": {
        "title": "Blog posts API",
        "version": "1.0.0"
    },
    "host": "laravel-coreui.loc",
    "basePath": "/",
    "schemes": [
        "http"
    ],
    "paths": {
        "/api/v1/students": {
            "get": {
                "tags": [
                    "Students"
                ],
                "summary": "Get list of students",
                "responses": {
                    "200": {
                        "description": "successful operation"
                    },
                    "401": {
                        "description": "Unauthorized user"
                    }
                },
                "security": [
                    {
                        "MyHeaderAuthentication": []
                    }
                ]
            },
            "post": {
                "description": "Return a student's name, surname, email, phone, faculty, group",
                "parameters": [
                    {
                        "name": "name",
                        "in": "query",
                        "description": "Student name",
                        "required": true,
                        "type": "string"
                    },
                    {
                        "name": "surname",
                        "in": "query",
                        "description": "Student surname",
                        "type": "string"
                    },
                    {
                        "name": "email",
                        "in": "query",
                        "description": "Student email",
                        "type": "string"
                    },
                    {
                        "name": "phone",
                        "in": "query",
                        "description": "Student phone",
                        "type": "string"
                    },
                    {
                        "name": "faculty_id",
                        "in": "query",
                        "description": "Student faculty id",
                        "type": "integer"
                    },
                    {
                        "name": "group_id",
                        "in": "query",
                        "description": "Student group id",
                        "type": "integer"
                    }
                ],
                "responses": {
                    "200": {
                        "description": "OK"
                    },
                    "422": {
                        "description": "Missing Data"
                    }
                }
            }
        },
        "/api/v1/students/{id}": {
            "get": {
                "tags": [
                    "Students"
                ],
                "summary": "Get studnet information",
                "description": "Returns student data",
                "operationId": "getStudentById",
                "parameters": [
                    {
                        "name": "id",
                        "in": "path",
                        "description": "Student id",
                        "required": true,
                        "type": "integer"
                    }
                ],
                "responses": {
                    "200": {
                        "description": "Successful operation"
                    },
                    "202": {
                        "description": "Successful operation"
                    },
                    "400": {
                        "description": "Bad Request"
                    },
                    "401": {
                        "description": "Unauthenticated"
                    },
                    "403": {
                        "description": "Forbidden"
                    },
                    "404": {
                        "description": "Resource Not Found"
                    }
                },
                "security": [
                    {
                        "MyHeaderAuthentication": []
                    }
                ]
            },
            "put": {
                "tags": [
                    "Students"
                ],
                "summary": "Update existing student data",
                "description": "Returns updated student data",
                "operationId": "updateStudent",
                "consumes": [
                    "application/x-www-form-urlencoded"
                ],
                "produces": [
                    "application/json"
                ],
                "parameters": [
                    {
                        "name": "id",
                        "in": "path",
                        "description": "Student id",
                        "required": true,
                        "type": "integer"
                    },
                    {
                        "name": "name",
                        "in": "query",
                        "description": "Student name",
                        "required": true,
                        "type": "string"
                    },
                    {
                        "name": "surname",
                        "in": "query",
                        "description": "Student surname",
                        "type": "string"
                    },
                    {
                        "name": "email",
                        "in": "query",
                        "description": "Student email",
                        "type": "string"
                    },
                    {
                        "name": "phone",
                        "in": "query",
                        "description": "Student phone",
                        "type": "string"
                    },
                    {
                        "name": "faculty_id",
                        "in": "query",
                        "description": "Student faculty id",
                        "type": "integer"
                    },
                    {
                        "name": "group_id",
                        "in": "query",
                        "description": "Student group id",
                        "type": "integer"
                    }
                ],
                "responses": {
                    "202": {
                        "description": "Successful operation"
                    },
                    "400": {
                        "description": "Bad Request"
                    },
                    "401": {
                        "description": "Unauthenticated"
                    },
                    "403": {
                        "description": "Forbidden"
                    },
                    "404": {
                        "description": "Resource Not Found"
                    }
                }
            },
            "delete": {
                "tags": [
                    "Student"
                ],
                "summary": "Delete existing student",
                "parameters": [
                    {
                        "name": "id",
                        "in": "path",
                        "description": "Student id",
                        "required": true,
                        "type": "integer"
                    }
                ],
                "responses": {
                    "200": {
                        "description": "Successful operation"
                    },
                    "422": {
                        "description": "Missing Data"
                    },
                    "404": {
                        "description": "Resource Not Found"
                    }
                }
            }
        }
    },
    "definitions": {},
    "securityDefinitions": {
        "MyHeaderAuthentication": {
            "type": "apiKey",
            "name": "Authorization",
            "in": "header"
        }
    }
}